all:
  children:
    datacenter:
      children:
        contabo:
          hosts:
            vmd132643.tuxsupport.de: {}
            vmd134720.tuxsupport.de: {}
            vmd154798.contaboserver.net:
              ansible_connection: ssh
              ansible_python_interpreter: /usr/bin/python3
              ansible_ssh_user: admin
              ansible_vault_pw_tkern: &id001 !vault |-
                $ANSIBLE_VAULT;1.1;AES256
                33633866363035396232653634633866393430643163653331373166633133303064633132316635
                3337316630373036353333633232666630643762616330350a346532626637626532336364326634
                33633161643134383934613133336532386334353330653237353466633130613433653661336130
                3130623737616564310a333430306263343930643538643334316334343065303139646361353839
              users_user_list: &id002
              - ansible_vault_ssh_private_keys: []
                password: !vault |
                  $ANSIBLE_VAULT;1.1;AES256
                  33653363306261346535633639346561306463623766333264653038633961613662316561303334
                  3839356366326165646632316162663131663135316166340a613166653762356230386537636565
                  35386533303561653763643462373537366664656235336539656636373632616537363861303437
                  6239623261623530360a633264656632323332313931316131643662316636326533633863656330
                  3233
                tobkern: null
              - ansible: null
                password: !vault |
                  $ANSIBLE_VAULT;1.1;AES256
                  30613662626465383938363233363038333935383763346133646638326466383038383961306265
                  3533373262643239386662643437333334303136323535310a373763356438343965666337353137
                  64303437333531316238623664633232366130306265623630366639653536323535396663383638
                  3431313665663738370a303366333731366564303564613632363835633435666462653137316162
                  3539
            vmd47205.tuxsupport.de: {}
    inwx_hosts:
      hosts:
        vmd132643.tuxsupport.de:
          ansible_connection: ssh
          ansible_python_interpreter: /usr/bin/python3
          ansible_ssh_user: tobkern
          ansible_vault_pw_tkern: *id001
          users_user_list: *id002
        vmd134720.tuxsupport.de:
          ansible_connection: ssh
          ansible_python_interpreter: /usr/bin/python3
          ansible_ssh_user: tobkern
          ansible_vault_pw_tkern: *id001
          users_user_list: *id002
        vmd47205.tuxsupport.de:
          ansible_connection: ssh
          ansible_ssh_user: tobkern
          ansible_vault_pw_tkern: *id001
          users_user_list: *id002
    node_exporter:
      children:
        myservers:
          hosts:
            vmd132643.tuxsupport.de: {}
            vmd134720.tuxsupport.de: {}
            vmd47205.tuxsupport.de: {}
    tuxcoach:
      hosts:
        srv3.local:
          ansible_connection: ssh
          ansible_ssh_user: tobkern
          ansible_vault_pw_tkern: *id001
          users_user_list: *id002
    tuxsupport:
      hosts:
        vmd132643.tuxsupport.de: {}
        vmd134720.tuxsupport.de: {}
        vmd47205.tuxsupport.de: {}
