# zerotier_network
zerotier_network_id: "8850338390eb4e96"

# https://github.com/geerlingguy/ansible-role-repo-epel.git
epel_enablerepo: []
epel_packages:
 -  pbuilder # für jenkins chroot plugin
epel_repository_epel: true

# https://github.com/geerlingguy/ansible-role-security.git

# https://github.com/geerlingguy/ansible-role-ssh-chroot-jail

# https://github.com/geerlingguy/ansible-role-backup.git
backup_directories:
  - /opt/

backup_exclude_items:
  - git

# https://github.com/arillso/ansible.sudoers
sudoers_sudoers:
  defaults:
    - env_reset
    - exempt_group=sudo
    - mail_badpass
    - secure_path="/usr/local/sbin:/usr/local/bin:/usr/sbin:/usr/bin:/sbin:/bin"